Assignment: Data Exploration
…
Before working on the data frames, we need to explore and prepare each data frame.

##Loyalty data
loyalty_data$timestamp <- date_time_parse(loyalty_data$timestamp,
                                 zone = "",
                                 format = "%m/%d/%Y") 

loyalty_data_cleaned <- loyalty_data %>%
  mutate(weekday = weekdays(timestamp), day = get_day(timestamp)) %>%
  rename("date" = "timestamp") 

loyalty_data_cleaned$location <- iconv(loyalty_data_cleaned$location, to='ASCII//TRANSLIT')
loyalty_data_cleaned

# A tibble: 1,392 x 6
   date                location         price loyaltynum weekday   day
   <dttm>              <chr>            <dbl> <chr>      <chr>   <int>
 1 2014-01-06 00:00:00 Brew've Been Se~  4.17 L2247      Monday      6
 2 2014-01-06 00:00:00 Brew've Been Se~  9.6  L9406      Monday      6
 3 2014-01-06 00:00:00 Hallowed Grounds 16.5  L8328      Monday      6
 4 2014-01-06 00:00:00 Coffee Shack     11.5  L6417      Monday      6
 5 2014-01-06 00:00:00 Hallowed Grounds 12.9  L1107      Monday      6
 6 2014-01-06 00:00:00 Brew've Been Se~  4.27 L4034      Monday      6
 7 2014-01-06 00:00:00 Brew've Been Se~ 11.2  L6110      Monday      6
 8 2014-01-06 00:00:00 Brew've Been Se~ 15.4  L2343      Monday      6
 9 2014-01-06 00:00:00 Abila Zacharo    26.9  L9018      Monday      6
10 2014-01-06 00:00:00 Hippokampos      34.0  L6267      Monday      6
# ... with 1,382 more rows

# Credit card data
cc_data$timestamp <- date_time_parse(cc_data$timestamp,
                                 zone = "",
                                 format = "%m/%d/%Y %H:%M")

cc_data_cleaned <- cc_data %>% 
  mutate(date = as_date(cc_data$timestamp), weekday = weekdays(timestamp), day = get_day(timestamp), hour = get_hour(cc_data$timestamp)) 

cc_data_cleaned$location <- iconv(cc_data_cleaned$location, to='ASCII//TRANSLIT')
cc_data_cleaned$last4ccnum = as_factor(cc_data_cleaned$last4ccnum)
cc_data_cleaned

# A tibble: 1,490 x 8
   timestamp           location    price last4ccnum date       weekday
   <dttm>              <chr>       <dbl> <fct>      <date>     <chr>  
 1 2014-01-06 07:28:00 Brew've Be~ 11.3  4795       2014-01-06 Monday 
 2 2014-01-06 07:34:00 Hallowed G~ 52.2  7108       2014-01-06 Monday 
 3 2014-01-06 07:35:00 Brew've Be~  8.33 6816       2014-01-06 Monday 
 4 2014-01-06 07:36:00 Hallowed G~ 16.7  9617       2014-01-06 Monday 
 5 2014-01-06 07:37:00 Brew've Be~  4.24 7384       2014-01-06 Monday 
 6 2014-01-06 07:38:00 Brew've Be~  4.17 5368       2014-01-06 Monday 
 7 2014-01-06 07:42:00 Coffee Cam~ 28.7  7253       2014-01-06 Monday 
 8 2014-01-06 07:43:00 Brew've Be~  9.6  4948       2014-01-06 Monday 
 9 2014-01-06 07:43:00 Brew've Be~ 16.9  9683       2014-01-06 Monday 
10 2014-01-06 07:47:00 Hallowed G~ 16.5  8129       2014-01-06 Monday 
# ... with 1,480 more rows, and 2 more variables: day <int>,
#   hour <int>

# GPS data
gps_data$Timestamp <- date_time_parse(gps_data$Timestamp,
                                 zone = "",
                                 format = "%m/%d/%Y %H:%M:%S")
gps_data$id <- as_factor(gps_data$id)
gps_data

# A tibble: 685,169 x 4
   Timestamp           id      lat  long
   <dttm>              <fct> <dbl> <dbl>
 1 2014-01-06 06:28:01 35     36.1  24.9
 2 2014-01-06 06:28:01 35     36.1  24.9
 3 2014-01-06 06:28:03 35     36.1  24.9
 4 2014-01-06 06:28:05 35     36.1  24.9
 5 2014-01-06 06:28:06 35     36.1  24.9
 6 2014-01-06 06:28:07 35     36.1  24.9
 7 2014-01-06 06:28:09 35     36.1  24.9
 8 2014-01-06 06:28:10 35     36.1  24.9
 9 2014-01-06 06:28:11 35     36.1  24.9
10 2014-01-06 06:28:12 35     36.1  24.9
# ... with 685,159 more rows

# Assignment data
assignment_data$CarID <- as_factor(assignment_data$CarID)
assignment_data

# A tibble: 44 x 5
   LastName    FirstName CarID CurrentEmploymentT~ CurrentEmploymentT~
   <chr>       <chr>     <fct> <chr>               <chr>              
 1 Calixto     Nils      1     Information Techno~ IT Helpdesk        
 2 Azada       Lars      2     Engineering         Engineer           
 3 Balas       Felix     3     Engineering         Engineer           
 4 Barranco    Ingrid    4     Executive           SVP/CFO            
 5 Baza        Isak      5     Information Techno~ IT Technician      
 6 Bergen      Linnea    6     Information Techno~ IT Group Manager   
 7 Orilla      Elsa      7     Engineering         Drill Technician   
 8 Alcazar     Lucas     8     Information Techno~ IT Technician      
 9 Cazar       Gustav    9     Engineering         Drill Technician   
10 Campo-Corr~ Ada       10    Executive           SVP/CIO            
# ... with 34 more rows
…
